33068.99765558585
9895.70018768726
6534.88471447577
5206.871104911157
4056.8616227703064
3991.995987821943
3567.410771156457
3216.725776696976
3110.828527122988
2903.3909223883
2697.5819838218827
2568.5286115665663
2440.438290405451
2275.2605025472735
2193.7366630081156
2138.527762403876
2038.3678976561514
1974.854840197985
1931.9534657499046
1877.9234241551242
1830.5900404815184
1766.4276852123483
1708.0369540531096
1655.7365158149141
1609.6005532185936
1577.6416365020123
1533.574914624811
1494.5548993891198
1469.833249866461
1447.3341613481207
1446.5604794537526
1411.603129752994
1387.4347152275
1364.115247500706
1356.2026598108826
1332.9209510877242
1320.0602689041775
1307.789661746179
1297.3718305469831
1281.5814180558377
1269.378252442395
1258.7696746847694
1243.288067884776
1232.0364447127029
1214.8786753661482
1200.1820142334238
1184.6340964013655
1171.7895175910132
1161.2147286906463
1153.749971990064
1143.3146045674962
1138.7457305258959
1130.1249813029858
1117.0273953185394
1110.9474649589274
1100.389447646483
1090.4914233852535
1080.0745973615033
1072.3034536307355
1064.309592051242
1055.97792434979
1047.5277111603934
1039.9011932822525
1033.299797945313
1028.5709234739759
1021.0768222875479
1012.2847838809157
1006.0295219364841
1000.0510904277866
994.0924571700948
989.4208238488692
983.1513739741299
977.2563643060993
971.3315120175414
966.3604315094269
961.7800780869287
956.05455320148
952.0782157486711
948.4225971256036
943.3962853801986
936.6300974633466
930.3797469746061
927.3522304880629
922.3410983382857
916.4400176976973
912.7765622590521
909.1738343462633
905.7311824406531
901.7860875740148
898.1621613145569
894.2607691060069
891.6693022377422
888.1787157459611
884.0108190737503
880.5535806600682
878.1649982154378
875.5039363579455
871.945677596124
868.8774592377669
865.1301968090156
861.7426906668821
858.2976108824566
854.5654606926813
851.1303894203577
847.3414597227138
843.5177817431555
841.3104487049422
838.1191538277902
835.9555334341759
834.0153628006997
830.5488134369022
827.6347460336522
824.6229624201007
821.8559662589208
819.2889066258044
816.340953640279
813.7195907089254
811.0345026142749
808.4942054581785
806.0603886119849
804.0613498128822
801.8202660970132
799.2704029153873
797.0218777117245
795.2855685313648
792.3398563114667
790.5783476425812
788.5535824059773
786.0821415716446
783.7120877675075
781.3149005957339
779.1228027141811
776.4648113581354
774.4732790950378
772.6807977269169
770.7226268461155
768.1754104075469
766.8951910320478
764.6264087244203
762.1832307529256
760.3096339958618
757.8213208367832
756.1689126492979
754.7844608944766
752.4579165900753
750.3437724508923
748.7328826347552
746.7478167853363
744.9091817864207
742.8311800236766
741.303468124215
739.6776574598011
738.023808482512
736.1894405472624
734.2168835483294
732.1654363576633
730.8387219852402
728.8692339184356
727.2968176106488
725.6566002412117
723.969458389837
722.4772921043393
720.4083544634062
719.2559097326645
717.61450439646
715.7790091223609
714.0948708839265
712.6185460778592
711.0304439454369
709.0357907688979
707.364289943843
705.7516047263125
704.094915747666
702.3923019426345
700.5984917234038
699.7246289990987
698.083601687932
696.6590854989162
694.9251073735239
692.8596825323986
691.2132992730089
689.4586274155272
687.6104738711417
686.1244607271066
684.4846237338827
683.0535086165306
681.4672763850448
679.8290910513902
678.2444084547254
676.9189172101318
675.5882526397087
674.2475447220806
672.7848967022551
671.2712312130731
670.0407833220842
668.2192180472504
666.8935567931474
665.469445413449
663.7732083124221
662.4954620338176
661.4030294085348
660.064218634
658.7214768120891
657.2114295565332
656.1552226538861
654.4429704767354
652.9169670882236
651.8559649767022
650.4900631594609
648.7542688489693
647.0804266985328
645.7900195506035
644.6461229945231
643.2737537973586
642.0343552035916
640.7508356829736
639.10915733145
637.80571162058
636.5108138275325
634.9027850290089
633.7316410944433
632.5316850164492
631.2420749951619
629.8195220830293
628.9894250447597
627.5743873765543
626.5494083210863
625.277962500261
624.1958435924283
622.9032574947616
621.8037536083574
620.6328631291008
619.7497448109074
618.2336791398471
617.5002121358941
616.6998015503726
615.4848880901652
614.4555410764523
613.4213666742271
612.3640265039433
611.3418686395654
610.2804243324397
609.0645859868762
608.2886859033003
607.3152223603887
606.4279071632502
605.4627193894822
604.6026016687697
603.6825671172573
602.594736341818
601.6242568493834
600.735339483466
599.905759984675
599.1559266563871
598.4594837734975
597.5666170185904
596.6692062514053
595.8745277338803
595.1777105333887
594.409340248642
593.5501463954131
592.8723275963882
592.141708098803
591.4237169510674
590.7472600305435
590.1390270644447
589.4118584332361
588.675714214546
587.8779186561708
587.071215403662
586.3879864241057
585.6315421870154
585.0017570697014
584.3340401328913
